{
  "projects": [
    {
      "name": "MeetUPS",
      "description": "This project displays meetups by city and theme. Users can sign up to attend these events, which facilitates the connection between people with similar interests and the creation of vibrant communities.",
      "link": "https://meet-ups-wheat.vercel.app/",
      "img": "https://i.ibb.co/k30C4Cv/Group-12.png"
    },
    {
      "name": "La charca del silencio",
      "description": "The Duck Pond is a choose-your-own-adventure game where your actions affect both your own story and those of the other players.",
      "link": "https://lacharcadelsilencio.vercel.app/",
      "img": "https://cdn-icons-png.flaticon.com/512/10776/10776200.png"
    },
    {
      "name": "SpaceX",
      "description": "Modular web using LitElement, Jest, and Cypress for automated testing and real-time API integration, providing up-to-date information about SpaceX.",
      "link": "https://spacex-e5bb6.web.app/",
      "img": "https://mystickermania.com/cdn/stickers/23-512x512.png"
    },
    {
      "name": "Rent a Book",
      "description": "Platform for renting books with a smooth and personalized experience. It uses React and Vite for fast and efficient development. Developed with TypeScript and automated tests using Jest.",
      "link": "https://pruebas-tecnicas-sigma.vercel.app/",
      "img": "https://cdn-icons-png.flaticon.com/512/6347/6347299.png"
    },
    {
      "name": "WikiTrivial",
      "description": "A small web application that allows us to play a trivia game generated with the most relevant daily publications from Wikipedia.",
      "link": "https://wikitrivial.vercel.app/",
      "img": "https://cdn0.iconfinder.com/data/icons/board-games-colored-1/48/Games_BoardGames_Artboard_40-512.png"
    }
  ]
}
